{
  "_schema": "http://json-schema.org/draft-04/schema#",
  "properties": {
    "pieces": {
      "type": "array",
      "items": {
        "type": "object"
      }
    },
    "boards": {
      "type": "array",
      "items": {
        "type": "object"
      }
    },
    "is_success": {
      "type": "boolean",
      "value": true
    },
    "error_message": {
      "type": "string"
    }
  },
  "required": [
    "is_success"
  ],
  "type": "object"
}
