{
  "_schema": "http://json-schema.org/draft-04/schema#",
  "properties": {
    "key": {
      "type": "string"
    },
    "policy": {
      "type": "string"
    },
    "x-amz-algorithm": {
      "type": "string"
    },
    "x-amz-credential": {
      "type": "string"
    },
    "x-amz-date": {
      "type": "string"
    },
    "x-amz-signature": {
      "type": "string"
    }
  },
  "required": [
    "key",
    "policy",
    "x-amz-algorithm",
    "x-amz-credential",
    "x-amz-date",
    "x-amz-signature"
  ],
  "type": "object"
}
