{
  "_schema": "http://json-schema.org/draft-04/schema#",
  "properties": {
    "boards": {
      "type": "array"
    },
    "pieces": {
      "type": "array"
    },
    "garbs": {
      "type": "array"
    },
    "client_version": {
      "type": "string"
    },
    "client_language": {
      "type": "string"
    },
    "client_platform": {
      "type": "string"
    },
    "client_genuine_id": {
      "type": "string"
    }
  },
  "required": [
    "boards",
    "pieces",
    "garbs",
    "client_version",
    "client_language",
    "client_platform",
    "client_genuine_id"
  ],
  "type": "object"
}
